﻿<root dataType="Struct" type="Duality.Resources.Scene" id="129723834">
  <assetInfo />
  <globalGravity dataType="Struct" type="Duality.Vector2">
    <X dataType="Float">0</X>
    <Y dataType="Float">33</Y>
  </globalGravity>
  <serializeObj dataType="Array" type="Duality.GameObject[]" id="427169525">
    <item dataType="Struct" type="Duality.GameObject" id="2322281975">
      <active dataType="Bool">true</active>
      <children />
      <compList dataType="Struct" type="System.Collections.Generic.List`1[[Duality.Component]]" id="2432762549">
        <_items dataType="Array" type="Duality.Component[]" id="149875446" length="4">
          <item dataType="Struct" type="Duality.Components.Transform" id="2379559193">
            <active dataType="Bool">true</active>
            <angle dataType="Float">0</angle>
            <angleAbs dataType="Float">0</angleAbs>
            <angleVel dataType="Float">0</angleVel>
            <angleVelAbs dataType="Float">0</angleVelAbs>
            <deriveAngle dataType="Bool">true</deriveAngle>
            <gameobj dataType="ObjectRef">2322281975</gameobj>
            <ignoreParent dataType="Bool">false</ignoreParent>
            <parentTransform />
            <pos dataType="Struct" type="Duality.Vector3" />
            <posAbs dataType="Struct" type="Duality.Vector3" />
            <scale dataType="Float">2</scale>
            <scaleAbs dataType="Float">2</scaleAbs>
            <vel dataType="Struct" type="Duality.Vector3" />
            <velAbs dataType="Struct" type="Duality.Vector3" />
          </item>
          <item dataType="Struct" type="Duality.Components.Renderers.TextRenderer" id="3205219629">
            <active dataType="Bool">true</active>
            <blockAlign dataType="Enum" type="Duality.Alignment" name="Center" value="0" />
            <colorTint dataType="Struct" type="Duality.Drawing.ColorRgba">
              <A dataType="Byte">255</A>
              <B dataType="Byte">255</B>
              <G dataType="Byte">255</G>
              <R dataType="Byte">255</R>
            </colorTint>
            <customMat />
            <gameobj dataType="ObjectRef">2322281975</gameobj>
            <iconMat dataType="Struct" type="Duality.ContentRef`1[[Duality.Resources.Material]]" />
            <offset dataType="Int">0</offset>
            <text dataType="Struct" type="Duality.Drawing.FormattedText" id="3600178173">
              <flowAreas />
              <fonts dataType="Array" type="Duality.ContentRef`1[[Duality.Resources.Font]][]" id="2485017894">
                <item dataType="Struct" type="Duality.ContentRef`1[[Duality.Resources.Font]]">
                  <contentPath dataType="String">Default:Font:GenericMonospace10</contentPath>
                </item>
              </fonts>
              <icons />
              <lineAlign dataType="Enum" type="Duality.Alignment" name="Left" value="1" />
              <maxHeight dataType="Int">0</maxHeight>
              <maxWidth dataType="Int">0</maxWidth>
              <sourceText dataType="String">Connecting...</sourceText>
              <wrapMode dataType="Enum" type="Duality.Drawing.FormattedText+WrapMode" name="Word" value="1" />
            </text>
            <visibilityGroup dataType="Enum" type="Duality.Drawing.VisibilityFlag" name="Group0" value="1" />
          </item>
        </_items>
        <_size dataType="Int">2</_size>
      </compList>
      <compMap dataType="Struct" type="System.Collections.Generic.Dictionary`2[[System.Type],[Duality.Component]]" id="4249024328" surrogate="true">
        <header />
        <body>
          <keys dataType="Array" type="System.Object[]" id="1606497439">
            <item dataType="Type" id="601978734" value="Duality.Components.Transform" />
            <item dataType="Type" id="2284954058" value="Duality.Components.Renderers.TextRenderer" />
          </keys>
          <values dataType="Array" type="System.Object[]" id="771746336">
            <item dataType="ObjectRef">2379559193</item>
            <item dataType="ObjectRef">3205219629</item>
          </values>
        </body>
      </compMap>
      <compTransform dataType="ObjectRef">2379559193</compTransform>
      <identifier dataType="Struct" type="System.Guid" surrogate="true">
        <header>
          <data dataType="Array" type="System.Byte[]" id="1847766029">EUeG1288p0+dF4W5eOCSKQ==</data>
        </header>
        <body />
      </identifier>
      <initState dataType="Enum" type="Duality.InitState" name="Initialized" value="1" />
      <name dataType="String">TextRenderer</name>
      <parent />
      <prefabLink />
    </item>
    <item dataType="Struct" type="Duality.GameObject" id="3967232117">
      <active dataType="Bool">true</active>
      <children />
      <compList dataType="Struct" type="System.Collections.Generic.List`1[[Duality.Component]]" id="3772005383">
        <_items dataType="Array" type="Duality.Component[]" id="1763121742" length="4">
          <item dataType="Struct" type="Duality.Components.Transform" id="4024509335">
            <active dataType="Bool">true</active>
            <angle dataType="Float">0</angle>
            <angleAbs dataType="Float">0</angleAbs>
            <angleVel dataType="Float">0</angleVel>
            <angleVelAbs dataType="Float">0</angleVelAbs>
            <deriveAngle dataType="Bool">true</deriveAngle>
            <gameobj dataType="ObjectRef">3967232117</gameobj>
            <ignoreParent dataType="Bool">false</ignoreParent>
            <parentTransform />
            <pos dataType="Struct" type="Duality.Vector3">
              <X dataType="Float">0</X>
              <Y dataType="Float">0</Y>
              <Z dataType="Float">-200</Z>
            </pos>
            <posAbs dataType="Struct" type="Duality.Vector3">
              <X dataType="Float">0</X>
              <Y dataType="Float">0</Y>
              <Z dataType="Float">-200</Z>
            </posAbs>
            <scale dataType="Float">1</scale>
            <scaleAbs dataType="Float">1</scaleAbs>
            <vel dataType="Struct" type="Duality.Vector3" />
            <velAbs dataType="Struct" type="Duality.Vector3" />
          </item>
          <item dataType="Struct" type="Duality.Components.Camera" id="1218651298">
            <active dataType="Bool">true</active>
            <farZ dataType="Float">10000</farZ>
            <focusDist dataType="Float">500</focusDist>
            <gameobj dataType="ObjectRef">3967232117</gameobj>
            <nearZ dataType="Float">0</nearZ>
            <passes dataType="Struct" type="System.Collections.Generic.List`1[[Duality.Components.Camera+Pass]]" id="4178569894">
              <_items dataType="Array" type="Duality.Components.Camera+Pass[]" id="1295025664" length="4">
                <item dataType="Struct" type="Duality.Components.Camera+Pass" id="1207729308">
                  <clearColor dataType="Struct" type="Duality.Drawing.ColorRgba" />
                  <clearDepth dataType="Float">1</clearDepth>
                  <clearFlags dataType="Enum" type="Duality.Drawing.ClearFlag" name="All" value="3" />
                  <input />
                  <matrixMode dataType="Enum" type="Duality.Drawing.RenderMatrix" name="PerspectiveWorld" value="0" />
                  <output dataType="Struct" type="Duality.ContentRef`1[[Duality.Resources.RenderTarget]]" />
                  <visibilityMask dataType="Enum" type="Duality.Drawing.VisibilityFlag" name="AllGroups" value="2147483647" />
                </item>
                <item dataType="Struct" type="Duality.Components.Camera+Pass" id="3587967510">
                  <clearColor dataType="Struct" type="Duality.Drawing.ColorRgba" />
                  <clearDepth dataType="Float">1</clearDepth>
                  <clearFlags dataType="Enum" type="Duality.Drawing.ClearFlag" name="None" value="0" />
                  <input />
                  <matrixMode dataType="Enum" type="Duality.Drawing.RenderMatrix" name="OrthoScreen" value="1" />
                  <output dataType="Struct" type="Duality.ContentRef`1[[Duality.Resources.RenderTarget]]" />
                  <visibilityMask dataType="Enum" type="Duality.Drawing.VisibilityFlag" name="All" value="4294967295" />
                </item>
              </_items>
              <_size dataType="Int">2</_size>
            </passes>
            <perspective dataType="Enum" type="Duality.Drawing.PerspectiveMode" name="Parallax" value="1" />
            <priority dataType="Int">0</priority>
            <visibilityMask dataType="Enum" type="Duality.Drawing.VisibilityFlag" name="All" value="4294967295" />
          </item>
        </_items>
        <_size dataType="Int">2</_size>
      </compList>
      <compMap dataType="Struct" type="System.Collections.Generic.Dictionary`2[[System.Type],[Duality.Component]]" id="4131047552" surrogate="true">
        <header />
        <body>
          <keys dataType="Array" type="System.Object[]" id="1436435885">
            <item dataType="ObjectRef">601978734</item>
            <item dataType="Type" id="1949764966" value="Duality.Components.Camera" />
          </keys>
          <values dataType="Array" type="System.Object[]" id="1119312248">
            <item dataType="ObjectRef">4024509335</item>
            <item dataType="ObjectRef">1218651298</item>
          </values>
        </body>
      </compMap>
      <compTransform dataType="ObjectRef">4024509335</compTransform>
      <identifier dataType="Struct" type="System.Guid" surrogate="true">
        <header>
          <data dataType="Array" type="System.Byte[]" id="124713415">qPPPVR83+UCLszMa9R2HZw==</data>
        </header>
        <body />
      </identifier>
      <initState dataType="Enum" type="Duality.InitState" name="Initialized" value="1" />
      <name dataType="String">Camera</name>
      <parent />
      <prefabLink />
    </item>
  </serializeObj>
  <visibilityStrategy dataType="Struct" type="Duality.Components.DefaultRendererVisibilityStrategy" id="2035693768" />
</root>
<!-- XmlFormatterBase Document Separator -->
