﻿<root dataType="Struct" type="Duality.Resources.Scene" id="129723834">
  <assetInfo />
  <globalGravity dataType="Struct" type="Duality.Vector2">
    <X dataType="Float">0</X>
    <Y dataType="Float">33</Y>
  </globalGravity>
  <serializeObj dataType="Array" type="Duality.GameObject[]" id="427169525">
    <item dataType="Struct" type="Duality.GameObject" id="424012204">
      <active dataType="Bool">true</active>
      <children />
      <compList dataType="Struct" type="System.Collections.Generic.List`1[[Duality.Component]]" id="3673098210">
        <_items dataType="Array" type="Duality.Component[]" id="4242101904" length="4">
          <item dataType="Struct" type="Duality.Components.Transform" id="481289422">
            <active dataType="Bool">true</active>
            <angle dataType="Float">0</angle>
            <angleAbs dataType="Float">0</angleAbs>
            <angleVel dataType="Float">0</angleVel>
            <angleVelAbs dataType="Float">0</angleVelAbs>
            <deriveAngle dataType="Bool">true</deriveAngle>
            <gameobj dataType="ObjectRef">424012204</gameobj>
            <ignoreParent dataType="Bool">false</ignoreParent>
            <parentTransform />
            <pos dataType="Struct" type="Duality.Vector3">
              <X dataType="Float">0</X>
              <Y dataType="Float">0</Y>
              <Z dataType="Float">-200</Z>
            </pos>
            <posAbs dataType="Struct" type="Duality.Vector3">
              <X dataType="Float">0</X>
              <Y dataType="Float">0</Y>
              <Z dataType="Float">-200</Z>
            </posAbs>
            <scale dataType="Float">1</scale>
            <scaleAbs dataType="Float">1</scaleAbs>
            <vel dataType="Struct" type="Duality.Vector3" />
            <velAbs dataType="Struct" type="Duality.Vector3" />
          </item>
          <item dataType="Struct" type="Duality.Components.Camera" id="1970398681">
            <active dataType="Bool">true</active>
            <farZ dataType="Float">10000</farZ>
            <focusDist dataType="Float">500</focusDist>
            <gameobj dataType="ObjectRef">424012204</gameobj>
            <nearZ dataType="Float">0</nearZ>
            <passes dataType="Struct" type="System.Collections.Generic.List`1[[Duality.Components.Camera+Pass]]" id="2858751997">
              <_items dataType="Array" type="Duality.Components.Camera+Pass[]" id="2064157990" length="4">
                <item dataType="Struct" type="Duality.Components.Camera+Pass" id="111893760">
                  <clearColor dataType="Struct" type="Duality.Drawing.ColorRgba" />
                  <clearDepth dataType="Float">1</clearDepth>
                  <clearFlags dataType="Enum" type="Duality.Drawing.ClearFlag" name="All" value="3" />
                  <input />
                  <matrixMode dataType="Enum" type="Duality.Drawing.RenderMatrix" name="PerspectiveWorld" value="0" />
                  <output dataType="Struct" type="Duality.ContentRef`1[[Duality.Resources.RenderTarget]]" />
                  <visibilityMask dataType="Enum" type="Duality.Drawing.VisibilityFlag" name="AllGroups" value="2147483647" />
                </item>
                <item dataType="Struct" type="Duality.Components.Camera+Pass" id="986190286">
                  <clearColor dataType="Struct" type="Duality.Drawing.ColorRgba" />
                  <clearDepth dataType="Float">1</clearDepth>
                  <clearFlags dataType="Enum" type="Duality.Drawing.ClearFlag" name="None" value="0" />
                  <input />
                  <matrixMode dataType="Enum" type="Duality.Drawing.RenderMatrix" name="OrthoScreen" value="1" />
                  <output dataType="Struct" type="Duality.ContentRef`1[[Duality.Resources.RenderTarget]]" />
                  <visibilityMask dataType="Enum" type="Duality.Drawing.VisibilityFlag" name="All" value="4294967295" />
                </item>
              </_items>
              <_size dataType="Int">2</_size>
            </passes>
            <perspective dataType="Enum" type="Duality.Drawing.PerspectiveMode" name="Parallax" value="1" />
            <priority dataType="Int">0</priority>
            <visibilityMask dataType="Enum" type="Duality.Drawing.VisibilityFlag" name="All" value="4294967295" />
          </item>
        </_items>
        <_size dataType="Int">2</_size>
      </compList>
      <compMap dataType="Struct" type="System.Collections.Generic.Dictionary`2[[System.Type],[Duality.Component]]" id="1710146698" surrogate="true">
        <header />
        <body>
          <keys dataType="Array" type="System.Object[]" id="3406981496">
            <item dataType="Type" id="824457068" value="Duality.Components.Transform" />
            <item dataType="Type" id="912884790" value="Duality.Components.Camera" />
          </keys>
          <values dataType="Array" type="System.Object[]" id="2261603294">
            <item dataType="ObjectRef">481289422</item>
            <item dataType="ObjectRef">1970398681</item>
          </values>
        </body>
      </compMap>
      <compTransform dataType="ObjectRef">481289422</compTransform>
      <identifier dataType="Struct" type="System.Guid" surrogate="true">
        <header>
          <data dataType="Array" type="System.Byte[]" id="3422527524">D7bQ5Swxz0K4s8TDiLxu+A==</data>
        </header>
        <body />
      </identifier>
      <initState dataType="Enum" type="Duality.InitState" name="Initialized" value="1" />
      <name dataType="String">Camera</name>
      <parent />
      <prefabLink />
    </item>
    <item dataType="Struct" type="Duality.GameObject" id="1459581563">
      <active dataType="Bool">true</active>
      <children />
      <compList dataType="Struct" type="System.Collections.Generic.List`1[[Duality.Component]]" id="1483424521">
        <_items dataType="Array" type="Duality.Component[]" id="2762083982" length="4">
          <item dataType="Struct" type="Duality.Components.Transform" id="1516858781">
            <active dataType="Bool">true</active>
            <angle dataType="Float">0</angle>
            <angleAbs dataType="Float">0</angleAbs>
            <angleVel dataType="Float">0</angleVel>
            <angleVelAbs dataType="Float">0</angleVelAbs>
            <deriveAngle dataType="Bool">true</deriveAngle>
            <gameobj dataType="ObjectRef">1459581563</gameobj>
            <ignoreParent dataType="Bool">false</ignoreParent>
            <parentTransform />
            <pos dataType="Struct" type="Duality.Vector3" />
            <posAbs dataType="Struct" type="Duality.Vector3" />
            <scale dataType="Float">1</scale>
            <scaleAbs dataType="Float">1</scaleAbs>
            <vel dataType="Struct" type="Duality.Vector3" />
            <velAbs dataType="Struct" type="Duality.Vector3" />
          </item>
          <item dataType="Struct" type="Duality.Components.Renderers.TextRenderer" id="2342519217">
            <active dataType="Bool">true</active>
            <blockAlign dataType="Enum" type="Duality.Alignment" name="Center" value="0" />
            <colorTint dataType="Struct" type="Duality.Drawing.ColorRgba">
              <A dataType="Byte">255</A>
              <B dataType="Byte">255</B>
              <G dataType="Byte">255</G>
              <R dataType="Byte">255</R>
            </colorTint>
            <customMat />
            <gameobj dataType="ObjectRef">1459581563</gameobj>
            <iconMat dataType="Struct" type="Duality.ContentRef`1[[Duality.Resources.Material]]" />
            <offset dataType="Int">0</offset>
            <text dataType="Struct" type="Duality.Drawing.FormattedText" id="3322146049">
              <flowAreas />
              <fonts dataType="Array" type="Duality.ContentRef`1[[Duality.Resources.Font]][]" id="2219247918">
                <item dataType="Struct" type="Duality.ContentRef`1[[Duality.Resources.Font]]">
                  <contentPath dataType="String">Default:Font:GenericMonospace10</contentPath>
                </item>
              </fonts>
              <icons />
              <lineAlign dataType="Enum" type="Duality.Alignment" name="Left" value="1" />
              <maxHeight dataType="Int">0</maxHeight>
              <maxWidth dataType="Int">0</maxWidth>
              <sourceText dataType="String">Connecting...</sourceText>
              <wrapMode dataType="Enum" type="Duality.Drawing.FormattedText+WrapMode" name="Word" value="1" />
            </text>
            <visibilityGroup dataType="Enum" type="Duality.Drawing.VisibilityFlag" name="Group0" value="1" />
          </item>
          <item dataType="Struct" type="Xexen2d.Networking.NetworkSynced" id="1216486313">
            <_x003C_Network_x003E_k__BackingField dataType="Struct" type="Duality.ContentRef`1[[Xexen2d.Networking.Network]]">
              <contentPath dataType="String">Network</contentPath>
            </_x003C_Network_x003E_k__BackingField>
            <active dataType="Bool">true</active>
            <gameobj dataType="ObjectRef">1459581563</gameobj>
          </item>
        </_items>
        <_size dataType="Int">3</_size>
      </compList>
      <compMap dataType="Struct" type="System.Collections.Generic.Dictionary`2[[System.Type],[Duality.Component]]" id="4181715520" surrogate="true">
        <header />
        <body>
          <keys dataType="Array" type="System.Object[]" id="1189716931">
            <item dataType="ObjectRef">824457068</item>
            <item dataType="Type" id="979847206" value="Duality.Components.Renderers.TextRenderer" />
            <item dataType="Type" id="3486957242" value="Xexen2d.Networking.NetworkSynced" />
          </keys>
          <values dataType="Array" type="System.Object[]" id="2808195768">
            <item dataType="ObjectRef">1516858781</item>
            <item dataType="ObjectRef">2342519217</item>
            <item dataType="ObjectRef">1216486313</item>
          </values>
        </body>
      </compMap>
      <compTransform dataType="ObjectRef">1516858781</compTransform>
      <identifier dataType="Struct" type="System.Guid" surrogate="true">
        <header>
          <data dataType="Array" type="System.Byte[]" id="1228601833">FJNYVME150ium2rNG/Mvvg==</data>
        </header>
        <body />
      </identifier>
      <initState dataType="Enum" type="Duality.InitState" name="Initialized" value="1" />
      <name dataType="String">TextRenderer</name>
      <parent />
      <prefabLink />
    </item>
    <item dataType="Struct" type="Duality.GameObject" id="2006912610">
      <active dataType="Bool">true</active>
      <children />
      <compList dataType="Struct" type="System.Collections.Generic.List`1[[Duality.Component]]" id="3114621100">
        <_items dataType="Array" type="Duality.Component[]" id="110846692" length="4">
          <item dataType="Struct" type="Duality.Components.Transform" id="2064189828">
            <active dataType="Bool">true</active>
            <angle dataType="Float">0</angle>
            <angleAbs dataType="Float">0</angleAbs>
            <angleVel dataType="Float">0</angleVel>
            <angleVelAbs dataType="Float">0</angleVelAbs>
            <deriveAngle dataType="Bool">true</deriveAngle>
            <gameobj dataType="ObjectRef">2006912610</gameobj>
            <ignoreParent dataType="Bool">false</ignoreParent>
            <parentTransform />
            <pos dataType="Struct" type="Duality.Vector3">
              <X dataType="Float">0</X>
              <Y dataType="Float">-120</Y>
              <Z dataType="Float">100</Z>
            </pos>
            <posAbs dataType="Struct" type="Duality.Vector3">
              <X dataType="Float">0</X>
              <Y dataType="Float">-120</Y>
              <Z dataType="Float">100</Z>
            </posAbs>
            <scale dataType="Float">2.4</scale>
            <scaleAbs dataType="Float">2.4</scaleAbs>
            <vel dataType="Struct" type="Duality.Vector3" />
            <velAbs dataType="Struct" type="Duality.Vector3" />
          </item>
          <item dataType="Struct" type="Duality.Components.Renderers.SpriteRenderer" id="3475531890">
            <active dataType="Bool">true</active>
            <colorTint dataType="Struct" type="Duality.Drawing.ColorRgba">
              <A dataType="Byte">255</A>
              <B dataType="Byte">255</B>
              <G dataType="Byte">255</G>
              <R dataType="Byte">255</R>
            </colorTint>
            <customMat />
            <flipMode dataType="Enum" type="Duality.Components.Renderers.SpriteRenderer+FlipMode" name="None" value="0" />
            <gameobj dataType="ObjectRef">2006912610</gameobj>
            <offset dataType="Int">0</offset>
            <pixelGrid dataType="Bool">false</pixelGrid>
            <rect dataType="Struct" type="Duality.Rect">
              <H dataType="Float">320</H>
              <W dataType="Float">480</W>
              <X dataType="Float">-240</X>
              <Y dataType="Float">-160</Y>
            </rect>
            <rectMode dataType="Enum" type="Duality.Components.Renderers.SpriteRenderer+UVMode" name="Stretch" value="0" />
            <sharedMat dataType="Struct" type="Duality.ContentRef`1[[Duality.Resources.Material]]">
              <contentPath dataType="String">Data\Xexen2d\hexen4.Material.res</contentPath>
            </sharedMat>
            <visibilityGroup dataType="Enum" type="Duality.Drawing.VisibilityFlag" name="Group0" value="1" />
          </item>
        </_items>
        <_size dataType="Int">2</_size>
      </compList>
      <compMap dataType="Struct" type="System.Collections.Generic.Dictionary`2[[System.Type],[Duality.Component]]" id="3136429494" surrogate="true">
        <header />
        <body>
          <keys dataType="Array" type="System.Object[]" id="4204798182">
            <item dataType="ObjectRef">824457068</item>
            <item dataType="Type" id="3962226048" value="Duality.Components.Renderers.SpriteRenderer" />
          </keys>
          <values dataType="Array" type="System.Object[]" id="870381882">
            <item dataType="ObjectRef">2064189828</item>
            <item dataType="ObjectRef">3475531890</item>
          </values>
        </body>
      </compMap>
      <compTransform dataType="ObjectRef">2064189828</compTransform>
      <identifier dataType="Struct" type="System.Guid" surrogate="true">
        <header>
          <data dataType="Array" type="System.Byte[]" id="2928993894">+nDmf2G0lEKHqxRBNQWEFw==</data>
        </header>
        <body />
      </identifier>
      <initState dataType="Enum" type="Duality.InitState" name="Initialized" value="1" />
      <name dataType="String">hexen4</name>
      <parent />
      <prefabLink />
    </item>
  </serializeObj>
  <visibilityStrategy dataType="Struct" type="Duality.Components.DefaultRendererVisibilityStrategy" id="2035693768" />
</root>
<!-- XmlFormatterBase Document Separator -->
