﻿<root dataType="Struct" type="Duality.Resources.Scene" id="129723834">
  <assetInfo />
  <globalGravity dataType="Struct" type="Duality.Vector2">
    <X dataType="Float">0</X>
    <Y dataType="Float">33</Y>
  </globalGravity>
  <serializeObj dataType="Array" type="Duality.GameObject[]" id="427169525">
    <item dataType="Struct" type="Duality.GameObject" id="3557258958">
      <active dataType="Bool">true</active>
      <children />
      <compList dataType="Struct" type="System.Collections.Generic.List`1[[Duality.Component]]" id="4166931672">
        <_items dataType="Array" type="Duality.Component[]" id="1692237740" length="4">
          <item dataType="Struct" type="Duality.Components.Transform" id="3614536176">
            <active dataType="Bool">true</active>
            <angle dataType="Float">0</angle>
            <angleAbs dataType="Float">0</angleAbs>
            <angleVel dataType="Float">0</angleVel>
            <angleVelAbs dataType="Float">0</angleVelAbs>
            <deriveAngle dataType="Bool">true</deriveAngle>
            <gameobj dataType="ObjectRef">3557258958</gameobj>
            <ignoreParent dataType="Bool">false</ignoreParent>
            <parentTransform />
            <pos dataType="Struct" type="Duality.Vector3">
              <X dataType="Float">0</X>
              <Y dataType="Float">0</Y>
              <Z dataType="Float">-200</Z>
            </pos>
            <posAbs dataType="Struct" type="Duality.Vector3">
              <X dataType="Float">0</X>
              <Y dataType="Float">0</Y>
              <Z dataType="Float">-200</Z>
            </posAbs>
            <scale dataType="Float">1</scale>
            <scaleAbs dataType="Float">1</scaleAbs>
            <vel dataType="Struct" type="Duality.Vector3" />
            <velAbs dataType="Struct" type="Duality.Vector3" />
          </item>
          <item dataType="Struct" type="Duality.Components.Camera" id="808678139">
            <active dataType="Bool">true</active>
            <farZ dataType="Float">10000</farZ>
            <focusDist dataType="Float">500</focusDist>
            <gameobj dataType="ObjectRef">3557258958</gameobj>
            <nearZ dataType="Float">0</nearZ>
            <passes dataType="Struct" type="System.Collections.Generic.List`1[[Duality.Components.Camera+Pass]]" id="902248695">
              <_items dataType="Array" type="Duality.Components.Camera+Pass[]" id="38155918" length="4">
                <item dataType="Struct" type="Duality.Components.Camera+Pass" id="4158120144">
                  <clearColor dataType="Struct" type="Duality.Drawing.ColorRgba" />
                  <clearDepth dataType="Float">1</clearDepth>
                  <clearFlags dataType="Enum" type="Duality.Drawing.ClearFlag" name="All" value="3" />
                  <input />
                  <matrixMode dataType="Enum" type="Duality.Drawing.RenderMatrix" name="PerspectiveWorld" value="0" />
                  <output dataType="Struct" type="Duality.ContentRef`1[[Duality.Resources.RenderTarget]]" />
                  <visibilityMask dataType="Enum" type="Duality.Drawing.VisibilityFlag" name="AllGroups" value="2147483647" />
                </item>
                <item dataType="Struct" type="Duality.Components.Camera+Pass" id="4060635758">
                  <clearColor dataType="Struct" type="Duality.Drawing.ColorRgba" />
                  <clearDepth dataType="Float">1</clearDepth>
                  <clearFlags dataType="Enum" type="Duality.Drawing.ClearFlag" name="None" value="0" />
                  <input />
                  <matrixMode dataType="Enum" type="Duality.Drawing.RenderMatrix" name="OrthoScreen" value="1" />
                  <output dataType="Struct" type="Duality.ContentRef`1[[Duality.Resources.RenderTarget]]" />
                  <visibilityMask dataType="Enum" type="Duality.Drawing.VisibilityFlag" name="All" value="4294967295" />
                </item>
              </_items>
              <_size dataType="Int">2</_size>
            </passes>
            <perspective dataType="Enum" type="Duality.Drawing.PerspectiveMode" name="Parallax" value="1" />
            <priority dataType="Int">0</priority>
            <visibilityMask dataType="Enum" type="Duality.Drawing.VisibilityFlag" name="All" value="4294967295" />
          </item>
        </_items>
        <_size dataType="Int">2</_size>
      </compList>
      <compMap dataType="Struct" type="System.Collections.Generic.Dictionary`2[[System.Type],[Duality.Component]]" id="1466863774" surrogate="true">
        <header />
        <body>
          <keys dataType="Array" type="System.Object[]" id="2072212634">
            <item dataType="Type" id="127252352" value="Duality.Components.Transform" />
            <item dataType="Type" id="430793934" value="Duality.Components.Camera" />
          </keys>
          <values dataType="Array" type="System.Object[]" id="2849994554">
            <item dataType="ObjectRef">3614536176</item>
            <item dataType="ObjectRef">808678139</item>
          </values>
        </body>
      </compMap>
      <compTransform dataType="ObjectRef">3614536176</compTransform>
      <identifier dataType="Struct" type="System.Guid" surrogate="true">
        <header>
          <data dataType="Array" type="System.Byte[]" id="1222192154">UXw0Bjuw/EGhfu9l99IC7Q==</data>
        </header>
        <body />
      </identifier>
      <initState dataType="Enum" type="Duality.InitState" name="Initialized" value="1" />
      <name dataType="String">Camera</name>
      <parent />
      <prefabLink />
    </item>
    <item dataType="Struct" type="Duality.GameObject" id="228421751">
      <active dataType="Bool">true</active>
      <children />
      <compList dataType="Struct" type="System.Collections.Generic.List`1[[Duality.Component]]" id="3457609525">
        <_items dataType="Array" type="Duality.Component[]" id="332329974" length="4">
          <item dataType="Struct" type="Duality.Components.Transform" id="285698969">
            <active dataType="Bool">true</active>
            <angle dataType="Float">0</angle>
            <angleAbs dataType="Float">0</angleAbs>
            <angleVel dataType="Float">0</angleVel>
            <angleVelAbs dataType="Float">0</angleVelAbs>
            <deriveAngle dataType="Bool">true</deriveAngle>
            <gameobj dataType="ObjectRef">228421751</gameobj>
            <ignoreParent dataType="Bool">false</ignoreParent>
            <parentTransform />
            <pos dataType="Struct" type="Duality.Vector3" />
            <posAbs dataType="Struct" type="Duality.Vector3" />
            <scale dataType="Float">1</scale>
            <scaleAbs dataType="Float">1</scaleAbs>
            <vel dataType="Struct" type="Duality.Vector3" />
            <velAbs dataType="Struct" type="Duality.Vector3" />
          </item>
          <item dataType="Struct" type="Duality.Components.Renderers.TextRenderer" id="1111359405">
            <active dataType="Bool">true</active>
            <blockAlign dataType="Enum" type="Duality.Alignment" name="Center" value="0" />
            <colorTint dataType="Struct" type="Duality.Drawing.ColorRgba">
              <A dataType="Byte">255</A>
              <B dataType="Byte">255</B>
              <G dataType="Byte">255</G>
              <R dataType="Byte">255</R>
            </colorTint>
            <customMat />
            <gameobj dataType="ObjectRef">228421751</gameobj>
            <iconMat dataType="Struct" type="Duality.ContentRef`1[[Duality.Resources.Material]]" />
            <offset dataType="Int">0</offset>
            <text dataType="Struct" type="Duality.Drawing.FormattedText" id="739035005">
              <flowAreas />
              <fonts dataType="Array" type="Duality.ContentRef`1[[Duality.Resources.Font]][]" id="3168975654">
                <item dataType="Struct" type="Duality.ContentRef`1[[Duality.Resources.Font]]">
                  <contentPath dataType="String">Default:Font:GenericMonospace10</contentPath>
                </item>
              </fonts>
              <icons />
              <lineAlign dataType="Enum" type="Duality.Alignment" name="Left" value="1" />
              <maxHeight dataType="Int">0</maxHeight>
              <maxWidth dataType="Int">0</maxWidth>
              <sourceText dataType="String">Hello World</sourceText>
              <wrapMode dataType="Enum" type="Duality.Drawing.FormattedText+WrapMode" name="Word" value="1" />
            </text>
            <visibilityGroup dataType="Enum" type="Duality.Drawing.VisibilityFlag" name="Group0" value="1" />
          </item>
          <item dataType="Struct" type="Xexen2d.Network.ConnectorText" id="4072073039">
            <_x003C_Network_x003E_k__BackingField dataType="Struct" type="Duality.ContentRef`1[[Xexen2d.Network.Network]]">
              <contentPath dataType="String">Data\Xexen2d\Resources\Network.Network.res</contentPath>
            </_x003C_Network_x003E_k__BackingField>
            <_x003C_Text_x003E_k__BackingField dataType="ObjectRef">1111359405</_x003C_Text_x003E_k__BackingField>
            <active dataType="Bool">true</active>
            <gameobj dataType="ObjectRef">228421751</gameobj>
          </item>
        </_items>
        <_size dataType="Int">3</_size>
      </compList>
      <compMap dataType="Struct" type="System.Collections.Generic.Dictionary`2[[System.Type],[Duality.Component]]" id="2293784648" surrogate="true">
        <header />
        <body>
          <keys dataType="Array" type="System.Object[]" id="1859186975">
            <item dataType="ObjectRef">127252352</item>
            <item dataType="Type" id="2336871278" value="Duality.Components.Renderers.TextRenderer" />
            <item dataType="Type" id="2540952010" value="Xexen2d.Network.ConnectorText" />
          </keys>
          <values dataType="Array" type="System.Object[]" id="2304726560">
            <item dataType="ObjectRef">285698969</item>
            <item dataType="ObjectRef">1111359405</item>
            <item dataType="ObjectRef">4072073039</item>
          </values>
        </body>
      </compMap>
      <compTransform dataType="ObjectRef">285698969</compTransform>
      <identifier dataType="Struct" type="System.Guid" surrogate="true">
        <header>
          <data dataType="Array" type="System.Byte[]" id="2133179277">9AWmvemPSU+MetUY2qWiMw==</data>
        </header>
        <body />
      </identifier>
      <initState dataType="Enum" type="Duality.InitState" name="Initialized" value="1" />
      <name dataType="String">ConnectorText</name>
      <parent />
      <prefabLink />
    </item>
  </serializeObj>
  <visibilityStrategy dataType="Struct" type="Duality.Components.DefaultRendererVisibilityStrategy" id="2035693768" />
</root>
<!-- XmlFormatterBase Document Separator -->
