﻿<root dataType="Struct" type="Xexen2d.Networking.Network" id="129723834">
  <_x003C_ConnectKey_x003E_k__BackingField dataType="String">Xexen2d</_x003C_ConnectKey_x003E_k__BackingField>
  <_x003C_IPAddress_x003E_k__BackingField dataType="String">localhost</_x003C_IPAddress_x003E_k__BackingField>
  <_x003C_Port_x003E_k__BackingField dataType="Int">1488</_x003C_Port_x003E_k__BackingField>
  <assetInfo />
</root>
<!-- XmlFormatterBase Document Separator -->
